{
  "project_info": {
    "project_number": "212466521682",
    "project_id": "damgroupmanager",
    "storage_bucket": "damgroupmanager.appspot.com"
  },
  "client": [
    {
      "client_info": {
        "mobilesdk_app_id": "1:212466521682:android:c2653ac7839ce5f930718b",
        "android_client_info": {
          "package_name": "com.example.groupmanagerdam"
        }
      },
      "oauth_client": [
        {
          "client_id": "212466521682-5ajob8k7qcaq9blmlo5euir0uqbiqfa3.apps.googleusercontent.com",
          "client_type": 1,
          "android_info": {
            "package_name": "com.example.groupmanagerdam",
            "certificate_hash": "b12ac503053e28523aa6a1d3c262ee10f01fad4a"
          }
        },
        {
          "client_id": "212466521682-7nus532ojav1ebjr4ui1rg8clca8nth0.apps.googleusercontent.com",
          "client_type": 3
        }
      ],
      "api_key": [
        {
          "current_key": "AIzaSyBNkKwovnNDlnZYGz2dml2s-C3HMV2miVc"
        }
      ],
      "services": {
        "appinvite_service": {
          "other_platform_oauth_client": [
            {
              "client_id": "212466521682-7nus532ojav1ebjr4ui1rg8clca8nth0.apps.googleusercontent.com",
              "client_type": 3
            }
          ]
        }
      }
    }
  ],
  "configuration_version": "1"
}